{
    "results": [
        {
            "metaData": {},
            "data": [
                [
                    "0",
                    "agediag_yrs",
                    "67.1029",
                    "13.7984",
                    "null",
                    "68.0",
                    "null",
                    "190.396",
                    "2711227.0",
                    "null",
                    "-0.3874"
                ],
                [
                    "1",
                    "asian",
                    "0.0859",
                    "0.2802",
                    "null",
                    "0.0",
                    "null",
                    "0.0785",
                    "3470.0",
                    "null",
                    "6.7387"
                ],
                [
                    "2",
                    "gradeii",
                    "0.7069",
                    "0.4552",
                    "null",
                    "1.0",
                    "null",
                    "0.2072",
                    "28563.0",
                    "null",
                    "-1.1732"
                ],
                [
                    "3",
                    "gradeiii",
                    "0.1727",
                    "0.378",
                    "null",
                    "0.0",
                    "null",
                    "0.1429",
                    "6977.0",
                    "null",
                    "1"
                ],
                [
                    "4",
                    "gradeiv",
                    "0.0176",
                    "0.1314",
                    "null",
                    "0.0",
                    "null",
                    "0.0173",
                    "710.0",
                    "null",
                    "51.9315"
                ],
                [
                    "5",
                    "hispanic",
                    "0.0977",
                    "0.2969",
                    "null",
                    "0.0",
                    "null",
                    "0.0881",
                    "3946.0",
                    "null",
                    "5.3483"
                ],
                [
                    "6",
                    "lymphnodes2004",
                    "76.0183",
                    "118.7626",
                    "null",
                    "0.0",
                    "null",
                    "14104.5562",
                    "3071445.0",
                    "null",
                    "6.1071"
                ],
                [
                    "7",
                    "male",
                    "0.5087",
                    "0.4999",
                    "null",
                    "1.0",
                    "null",
                    "0.2499",
                    "20553.0",
                    "null",
                    "-1.9989"
                ],
                [
                    "8",
                    "medicaid",
                    "0.1087",
                    "0.3113",
                    "null",
                    "0.0",
                    "null",
                    "0.0969",
                    "4393.0",
                    "null",
                    "4.32"
                ],
                [
                    "9",
                    "metsatdiag2004",
                    "7.2591",
                    "15.3632",
                    "null",
                    "0.0",
                    "null",
                    "236.0292",
                    "293297.0",
                    "null",
                    "1.1498"
                ],
                [
                    "10",
                    "mortality1yr",
                    "0.1873",
                    "0.3901",
                    "null",
                    "0.0",
                    "null",
                    "0.1522",
                    "7566.0",
                    "null",
                    "0.5708"
                ],
                [
                    "11",
                    "nativeamer",
                    "0.0061",
                    "0.0778",
                    "null",
                    "0.0",
                    "null",
                    "0.0061",
                    "246.0",
                    "null",
                    "159.2699"
                ],
                [
                    "12",
                    "nhw",
                    "0.6898",
                    "0.4626",
                    "null",
                    "1.0",
                    "null",
                    "0.214",
                    "27871.0",
                    "null",
                    "-1.3265"
                ],
                [
                    "13",
                    "tumorsize2004",
                    "46.3764",
                    "32.5719",
                    "null",
                    "42.0",
                    "null",
                    "1060.9267",
                    "1873791.0",
                    "null",
                    "174.6708"
                ],
                [
                    "14",
                    "uninsured",
                    "0.0312",
                    "0.1739",
                    "null",
                    "0.0",
                    "null",
                    "0.0302",
                    "1261.0",
                    "null",
                    "27.077"
                ],
                [
                    "15",
                    "unkinsure",
                    "0.035",
                    "0.1838",
                    "null",
                    "0.0",
                    "null",
                    "0.0338",
                    "1415.0",
                    "null",
                    "23.5934"
                ]
            ],
            "columns": [
                {
                    "name": "RowId"
                },
                {
                    "name": "Variable Name"
                },
                {
                    "name": "Mean or Proportion"
                },
                {
                    "name": "Standard Deviation"
                },
                {
                    "name": "Standard Error"
                },
                {
                    "name": "Median"
                },
                {
                    "name": "Mode"
                },
                {
                    "name": "Variance"
                },
                {
                    "name": "Sum"
                },
                {
                    "name": "Skewness"
                },
                {
                    "name": "Kurtosis"
                }
            ],
            "name": "DescriptiveStatisticsOutput",
            "outputType": "Tabular"
        },
        {
            "metaData": {},
            "data": [
                [
                    "0",
                    "mortality1yr",
                    "treatradiation",
                    "198",
                    "1.0",
                    "198",
                    "7368",
                    "0.0",
                    "0",
                    "1.0",
                    "1.0",
                    "198",
                    "1.0",
                    "198",
                    "198",
                    "0.0",
                    "0",
                    "1.0",
                    "1.0",
                    "0",
                    "NaN",
                    "0",
                    "1.0",
                    "1.0"
                ]
            ],
            "columns": [
                {
                    "name": "RowId"
                },
                {
                    "parentcolumn": {
                        "parentcolumn": {
                            "parentcolumn": {
                                "name": ""
                            },
                            "name": ""
                        },
                        "name": ""
                    },
                    "name": "Outcome"
                },
                {
                    "parentcolumn": {
                        "parentcolumn": {
                            "parentcolumn": {
                                "name": ""
                            },
                            "name": ""
                        },
                        "name": ""
                    },
                    "name": "Exposure"
                },
                {
                    "parentcolumn": {
                        "parentcolumn": {
                            "parentcolumn": {
                                "name": ""
                            },
                            "name": "PRIOR TO MATCH"
                        },
                        "name": "Exposed"
                    },
                    "name": "Cases"
                },
                {
                    "parentcolumn": {
                        "parentcolumn": {
                            "parentcolumn": {
                                "name": ""
                            },
                            "name": "PRIOR TO MATCH"
                        },
                        "name": "Exposed"
                    },
                    "name": "Event %"
                },
                {
                    "parentcolumn": {
                        "parentcolumn": {
                            "parentcolumn": {
                                "name": ""
                            },
                            "name": "PRIOR TO MATCH"
                        },
                        "name": "Exposed"
                    },
                    "name": "Events"
                },
                {
                    "parentcolumn": {
                        "parentcolumn": {
                            "parentcolumn": {
                                "name": ""
                            },
                            "name": "PRIOR TO MATCH"
                        },
                        "name": "Non-Exposed"
                    },
                    "name": "Cases"
                },
                {
                    "parentcolumn": {
                        "parentcolumn": {
                            "parentcolumn": {
                                "name": ""
                            },
                            "name": "PRIOR TO MATCH"
                        },
                        "name": "Non-Exposed"
                    },
                    "name": "Event %"
                },
                {
                    "parentcolumn": {
                        "parentcolumn": {
                            "parentcolumn": {
                                "name": ""
                            },
                            "name": "PRIOR TO MATCH"
                        },
                        "name": "Non-Exposed"
                    },
                    "name": "Events"
                },
                {
                    "parentcolumn": {
                        "parentcolumn": {
                            "parentcolumn": {
                                "name": ""
                            },
                            "name": "PRIOR TO MATCH"
                        },
                        "name": ""
                    },
                    "name": "p-Value"
                },
                {
                    "parentcolumn": {
                        "parentcolumn": {
                            "parentcolumn": {
                                "name": ""
                            },
                            "name": "PRIOR TO MATCH"
                        },
                        "name": ""
                    },
                    "name": "UnM/M"
                },
                {
                    "parentcolumn": {
                        "parentcolumn": {
                            "parentcolumn": {
                                "name": ""
                            },
                            "name": "AFTER MATCH"
                        },
                        "name": "Exposed"
                    },
                    "name": "Cases"
                },
                {
                    "parentcolumn": {
                        "parentcolumn": {
                            "parentcolumn": {
                                "name": ""
                            },
                            "name": "AFTER MATCH"
                        },
                        "name": "Exposed"
                    },
                    "name": "Event %"
                },
                {
                    "parentcolumn": {
                        "parentcolumn": {
                            "parentcolumn": {
                                "name": ""
                            },
                            "name": "AFTER MATCH"
                        },
                        "name": "Exposed"
                    },
                    "name": "Events"
                },
                {
                    "parentcolumn": {
                        "parentcolumn": {
                            "parentcolumn": {
                                "name": ""
                            },
                            "name": "AFTER MATCH"
                        },
                        "name": "Non-Exposed"
                    },
                    "name": "Cases"
                },
                {
                    "parentcolumn": {
                        "parentcolumn": {
                            "parentcolumn": {
                                "name": ""
                            },
                            "name": "AFTER MATCH"
                        },
                        "name": "Non-Exposed"
                    },
                    "name": "Event %"
                },
                {
                    "parentcolumn": {
                        "parentcolumn": {
                            "parentcolumn": {
                                "name": ""
                            },
                            "name": "AFTER MATCH"
                        },
                        "name": "Non-Exposed"
                    },
                    "name": "Events"
                },
                {
                    "parentcolumn": {
                        "parentcolumn": {
                            "parentcolumn": {
                                "name": ""
                            },
                            "name": "AFTER MATCH"
                        },
                        "name": ""
                    },
                    "name": "p-Value"
                },
                {
                    "parentcolumn": {
                        "parentcolumn": {
                            "parentcolumn": {
                                "name": ""
                            },
                            "name": "AFTER MATCH"
                        },
                        "name": ""
                    },
                    "name": "UnM/M"
                },
                {
                    "parentcolumn": {
                        "parentcolumn": {
                            "parentcolumn": {
                                "name": ""
                            },
                            "name": "UNMATCHED EXPOSURES"
                        },
                        "name": "Exposed"
                    },
                    "name": "Cases"
                },
                {
                    "parentcolumn": {
                        "parentcolumn": {
                            "parentcolumn": {
                                "name": ""
                            },
                            "name": "UNMATCHED EXPOSURES"
                        },
                        "name": "Exposed"
                    },
                    "name": "Event %"
                },
                {
                    "parentcolumn": {
                        "parentcolumn": {
                            "parentcolumn": {
                                "name": ""
                            },
                            "name": "UNMATCHED EXPOSURES"
                        },
                        "name": "Exposed"
                    },
                    "name": "Events"
                },
                {
                    "parentcolumn": {
                        "parentcolumn": {
                            "parentcolumn": {
                                "name": ""
                            },
                            "name": "UNMATCHED EXPOSURES"
                        },
                        "name": ""
                    },
                    "name": "p-Value"
                },
                {
                    "parentcolumn": {
                        "parentcolumn": {
                            "parentcolumn": {
                                "name": ""
                            },
                            "name": "UNMATCHED EXPOSURES"
                        },
                        "name": ""
                    },
                    "name": "UnM/M"
                }
            ],
            "name": "Outcomes",
            "outputType": "Tabular"
        },
        {
            "metaData": {},
            "data": [
                [
                    "0",
                    "Number of Cases",
                    "824",
                    "null",
                    "39580",
                    "null",
                    "null",
                    "824",
                    "null",
                    "824",
                    "null",
                    "null",
                    "null",
                    "null",
                    "null"
                ],
                [
                    "1",
                    "lymphnodes2004",
                    "116.8665",
                    "136.2742",
                    "75.1679",
                    "118.2226",
                    "null",
                    "116.8665",
                    "136.2742",
                    "118.7015",
                    "144.213",
                    "null",
                    "74.2085",
                    "117.3987",
                    "0.0"
                ],
                [
                    "2",
                    "metsatdiag2004",
                    "14.9393",
                    "19.7265",
                    "7.0992",
                    "15.2183",
                    "null",
                    "14.9393",
                    "19.7265",
                    "14.0376",
                    "19.2867",
                    "null",
                    "6.9497",
                    "15.0834",
                    "0.0"
                ],
                [
                    "3",
                    "medicaid",
                    "0.1614",
                    "0.3681",
                    "0.1076",
                    "0.3099",
                    "null",
                    "0.1614",
                    "0.3681",
                    "0.1578",
                    "0.3647",
                    "null",
                    "0.1066",
                    "0.3086",
                    "0.0"
                ],
                [
                    "4",
                    "gradeii",
                    "0.676",
                    "0.4683",
                    "0.7076",
                    "0.4549",
                    "null",
                    "0.676",
                    "0.4683",
                    "0.7027",
                    "0.4574",
                    "null",
                    "0.7077",
                    "0.4548",
                    "0.0"
                ],
                [
                    "5",
                    "gradeiii",
                    "0.25",
                    "0.4333",
                    "0.1711",
                    "0.3766",
                    "null",
                    "0.25",
                    "0.4333",
                    "0.233",
                    "0.423",
                    "null",
                    "0.1697",
                    "0.3754",
                    "0.0"
                ],
                [
                    "6",
                    "uninsured",
                    "0.0607",
                    "0.2389",
                    "0.0306",
                    "0.1722",
                    "null",
                    "0.0607",
                    "0.2389",
                    "0.0692",
                    "0.2539",
                    "null",
                    "0.0298",
                    "0.17",
                    "0.0"
                ],
                [
                    "7",
                    "asian",
                    "0.0777",
                    "0.2678",
                    "0.0861",
                    "0.2804",
                    "null",
                    "0.0777",
                    "0.2678",
                    "0.0667",
                    "0.2497",
                    "null",
                    "0.0865",
                    "0.281",
                    "0.0"
                ],
                [
                    "8",
                    "male",
                    "0.5583",
                    "0.4969",
                    "0.5077",
                    "0.4999",
                    "null",
                    "0.5583",
                    "0.4969",
                    "0.585",
                    "0.493",
                    "null",
                    "0.506",
                    "0.5",
                    "0.0"
                ],
                [
                    "9",
                    "tumorsize2004",
                    "57.1723",
                    "30.1313",
                    "46.1516",
                    "32.5831",
                    "null",
                    "57.1723",
                    "30.1313",
                    "54.466",
                    "39.8046",
                    "null",
                    "45.7987",
                    "29.9504",
                    "0.0"
                ],
                [
                    "10",
                    "gradeiv",
                    "0.0231",
                    "0.1502",
                    "0.0175",
                    "0.131",
                    "null",
                    "0.0231",
                    "0.1502",
                    "0.0231",
                    "0.1502",
                    "null",
                    "0.0173",
                    "0.1305",
                    "0.0"
                ],
                [
                    "11",
                    "unkinsure",
                    "0.017",
                    "0.1293",
                    "0.0354",
                    "0.1848",
                    "null",
                    "0.017",
                    "0.1293",
                    "0.0146",
                    "0.1199",
                    "null",
                    "0.0358",
                    "0.1859",
                    "0.0"
                ],
                [
                    "12",
                    "hispanic",
                    "0.1007",
                    "0.3012",
                    "0.0976",
                    "0.2968",
                    "null",
                    "0.1007",
                    "0.3012",
                    "0.091",
                    "0.2878",
                    "null",
                    "0.0977",
                    "0.2969",
                    "0.0"
                ],
                [
                    "13",
                    "nativeamer",
                    "0.0121",
                    "0.1096",
                    "0.006",
                    "0.077",
                    "null",
                    "0.0121",
                    "0.1096",
                    "0.0073",
                    "0.0851",
                    "null",
                    "0.0059",
                    "0.0768",
                    "0.0"
                ],
                [
                    "14",
                    "nhw",
                    "0.6784",
                    "0.4674",
                    "0.69",
                    "0.4625",
                    "null",
                    "0.6784",
                    "0.4674",
                    "0.693",
                    "0.4615",
                    "null",
                    "0.69",
                    "0.4625",
                    "0.0"
                ],
                [
                    "15",
                    "agediag_yrs",
                    "61.1468",
                    "12.7704",
                    "67.2269",
                    "13.7918",
                    "null",
                    "61.1468",
                    "12.7704",
                    "60.642",
                    "13.6982",
                    "null",
                    "67.3673",
                    "13.7599",
                    "0.0"
                ]
            ],
            "columns": [
                {
                    "name": "RowId"
                },
                {
                    "parentcolumn": {
                        "name": ""
                    },
                    "name": "Covariate"
                },
                {
                    "parentcolumn": {
                        "parentcolumn": {
                            "parentcolumn": {
                                "name": ""
                            },
                            "name": "Prior To Match"
                        },
                        "name": "Exposed"
                    },
                    "name": "Mean"
                },
                {
                    "parentcolumn": {
                        "parentcolumn": {
                            "parentcolumn": {
                                "name": ""
                            },
                            "name": "Prior To Match"
                        },
                        "name": "Exposed"
                    },
                    "name": "Std Dev"
                },
                {
                    "parentcolumn": {
                        "parentcolumn": {
                            "parentcolumn": {
                                "name": ""
                            },
                            "name": "Prior To Match"
                        },
                        "name": "Non-Exposed"
                    },
                    "name": "Mean"
                },
                {
                    "parentcolumn": {
                        "parentcolumn": {
                            "parentcolumn": {
                                "name": ""
                            },
                            "name": "Prior To Match"
                        },
                        "name": "Non-Exposed"
                    },
                    "name": "Std Dev"
                },
                {
                    "parentcolumn": {
                        "parentcolumn": {
                            "parentcolumn": {
                                "name": ""
                            },
                            "name": "Prior To Match"
                        },
                        "name": ""
                    },
                    "name": "Std Diff"
                },
                {
                    "parentcolumn": {
                        "parentcolumn": {
                            "parentcolumn": {
                                "name": ""
                            },
                            "name": "After Match"
                        },
                        "name": "Exposed"
                    },
                    "name": "Mean"
                },
                {
                    "parentcolumn": {
                        "parentcolumn": {
                            "parentcolumn": {
                                "name": ""
                            },
                            "name": "After Match"
                        },
                        "name": "Exposed"
                    },
                    "name": "Std Dev"
                },
                {
                    "parentcolumn": {
                        "parentcolumn": {
                            "parentcolumn": {
                                "name": ""
                            },
                            "name": "After Match"
                        },
                        "name": "Non-Exposed"
                    },
                    "name": "Mean"
                },
                {
                    "parentcolumn": {
                        "parentcolumn": {
                            "parentcolumn": {
                                "name": ""
                            },
                            "name": "After Match"
                        },
                        "name": "Non-Exposed"
                    },
                    "name": "Std Dev"
                },
                {
                    "parentcolumn": {
                        "parentcolumn": {
                            "parentcolumn": {
                                "name": ""
                            },
                            "name": "After Match"
                        },
                        "name": ""
                    },
                    "name": "Std Diff"
                },
                {
                    "parentcolumn": {
                        "parentcolumn": {
                            "parentcolumn": {
                                "name": ""
                            },
                            "name": "Unmatched Exposures"
                        },
                        "name": "Exposed"
                    },
                    "name": "Mean"
                },
                {
                    "parentcolumn": {
                        "parentcolumn": {
                            "parentcolumn": {
                                "name": ""
                            },
                            "name": "Unmatched Exposures"
                        },
                        "name": "Exposed"
                    },
                    "name": "Std Dev"
                },
                {
                    "parentcolumn": {
                        "parentcolumn": {
                            "parentcolumn": {
                                "name": ""
                            },
                            "name": "Unmatched Exposures"
                        },
                        "name": ""
                    },
                    "name": "Std Diff"
                }
            ],
            "name": "PropensityMatchDescriptiveStats",
            "outputType": "Tabular"
        },
        {
            "alerts": [
                {
                    "idRow": 0,
                    "description": "Above secondary confidence interval",
                    "type": 3
                },
                {
                    "idRow": 0,
                    "description": "Above primary confidence interval",
                    "type": 2
                },
                {
                    "idRow": 1,
                    "description": "Above secondary confidence interval",
                    "type": 3
                },
                {
                    "idRow": 1,
                    "description": "Above primary confidence interval",
                    "type": 2
                },
                {
                    "idRow": 2,
                    "description": "Above secondary confidence interval",
                    "type": 3
                },
                {
                    "idRow": 2,
                    "description": "Above primary confidence interval",
                    "type": 2
                },
                {
                    "idRow": 3,
                    "description": "Above secondary confidence interval",
                    "type": 3
                },
                {
                    "idRow": 3,
                    "description": "Above primary confidence interval",
                    "type": 2
                },
                {
                    "idRow": 4,
                    "description": "Above secondary confidence interval",
                    "type": 3
                },
                {
                    "idRow": 4,
                    "description": "Above primary confidence interval",
                    "type": 2
                },
                {
                    "idRow": 5,
                    "description": "Above secondary confidence interval",
                    "type": 3
                },
                {
                    "idRow": 5,
                    "description": "Above primary confidence interval",
                    "type": 2
                },
                {
                    "idRow": 6,
                    "description": "Above secondary confidence interval",
                    "type": 3
                },
                {
                    "idRow": 6,
                    "description": "Above primary confidence interval",
                    "type": 2
                },
                {
                    "idRow": 7,
                    "description": "Above secondary confidence interval",
                    "type": 3
                },
                {
                    "idRow": 7,
                    "description": "Above primary confidence interval",
                    "type": 2
                },
                {
                    "idRow": 8,
                    "description": "Above secondary confidence interval",
                    "type": 3
                },
                {
                    "idRow": 8,
                    "description": "Above primary confidence interval",
                    "type": 2
                }
            ],
            "metaData": {},
            "data": [
                [
                    "1",
                    "2007Q1",
                    "79.0",
                    "25.0",
                    "0.4255",
                    "0.2245",
                    "0.479",
                    "0.1891",
                    "0.3165",
                    "125",
                    "18.0",
                    "0.2162",
                    "0.0931",
                    "0.2569",
                    "0.0756",
                    "0.144"
                ],
                [
                    "2",
                    "2007Q2",
                    "72.0",
                    "21.0",
                    "0.3821",
                    "0.2368",
                    "0.4113",
                    "0.2154",
                    "0.3046",
                    "230",
                    "44.0",
                    "0.2471",
                    "0.1458",
                    "0.2693",
                    "0.1319",
                    "0.1913"
                ],
                [
                    "3",
                    "2007Q3",
                    "69.0",
                    "21.0",
                    "0.3682",
                    "0.2475",
                    "0.3875",
                    "0.2326",
                    "0.3045",
                    "311",
                    "70.0",
                    "0.2747",
                    "0.1822",
                    "0.2902",
                    "0.1712",
                    "0.2251"
                ],
                [
                    "4",
                    "2007Q4",
                    "64.0",
                    "17.0",
                    "0.3514",
                    "0.2458",
                    "0.365",
                    "0.2347",
                    "0.2958",
                    "379",
                    "87.0",
                    "0.2745",
                    "0.1902",
                    "0.2859",
                    "0.1817",
                    "0.2296"
                ],
                [
                    "5",
                    "2008Q1",
                    "69.0",
                    "14.0",
                    "0.3264",
                    "0.2335",
                    "0.3365",
                    "0.2256",
                    "0.2776",
                    "439",
                    "98.0",
                    "0.2645",
                    "0.1868",
                    "0.2729",
                    "0.1802",
                    "0.2232"
                ],
                [
                    "6",
                    "2008Q2",
                    "78.0",
                    "26.0",
                    "0.3322",
                    "0.247",
                    "0.3395",
                    "0.2409",
                    "0.2877",
                    "504",
                    "108.0",
                    "0.2522",
                    "0.1807",
                    "0.2586",
                    "0.1757",
                    "0.2143"
                ],
                [
                    "7",
                    "2008Q3",
                    "64.0",
                    "13.0",
                    "0.3178",
                    "0.2392",
                    "0.3233",
                    "0.2346",
                    "0.2768",
                    "556",
                    "126.0",
                    "0.2633",
                    "0.1938",
                    "0.2681",
                    "0.1898",
                    "0.2266"
                ],
                [
                    "8",
                    "2008Q4",
                    "58.0",
                    "12.0",
                    "0.3079",
                    "0.2342",
                    "0.312",
                    "0.2307",
                    "0.2694",
                    "606",
                    "134.0",
                    "0.2559",
                    "0.1899",
                    "0.2595",
                    "0.1869",
                    "0.2211"
                ],
                [
                    "9",
                    "2009Q1",
                    "68.0",
                    "12.0",
                    "0.2952",
                    "0.2264",
                    "0.2981",
                    "0.224",
                    "0.2593",
                    "661",
                    "145.0",
                    "0.2525",
                    "0.1895",
                    "0.2553",
                    "0.1873",
                    "0.2194"
                ],
                [
                    "10",
                    "2009Q2",
                    "70.0",
                    "17.0",
                    "0.2915",
                    "0.2264",
                    "0.2935",
                    "0.2247",
                    "0.2576",
                    "724",
                    "165.0",
                    "0.2599",
                    "0.1988",
                    "0.2618",
                    "0.1973",
                    "0.2279"
                ],
                [
                    "11",
                    "2009Q3",
                    "73.0",
                    "9.0",
                    "0.2765",
                    "0.2156",
                    "0.2777",
                    "0.2146",
                    "0.2448",
                    "779",
                    "180.0",
                    "0.262",
                    "0.2029",
                    "0.2631",
                    "0.2018",
                    "0.2311"
                ],
                [
                    "12",
                    "2009Q4",
                    "60.0",
                    "11.0",
                    "0.2706",
                    "0.2123",
                    "0.2712",
                    "0.2119",
                    "0.2403",
                    "824",
                    "198.0",
                    "0.2706",
                    "0.2123",
                    "0.2712",
                    "0.2119",
                    "0.2403"
                ]
            ],
            "columns": [
                {
                    "name": "RowId"
                },
                {
                    "name": "Period Name"
                },
                {
                    "name": "Observed Count"
                },
                {
                    "name": "Observed Event"
                },
                {
                    "name": "Observed Upper Confidence Interval"
                },
                {
                    "name": "Observed Lower Confidence Interval"
                },
                {
                    "name": "Observed Secondary Upper Confidence Interval"
                },
                {
                    "name": "Observed Secondary Lower Confidence Interval"
                },
                {
                    "name": "Observed Proportion"
                },
                {
                    "name": "Expected Count"
                },
                {
                    "name": "Expected Event"
                },
                {
                    "name": "Expected Upper Confidence Interval"
                },
                {
                    "name": "Expected Lower Confidence Interval"
                },
                {
                    "name": "Expected Secondary Upper Confidence Interval"
                },
                {
                    "name": "Expected Secondary Lower Confidence Interval"
                },
                {
                    "name": "Expected Proportion"
                }
            ],
            "name": "ObservedExpectedGraphOutput",
            "outputType": "Chart"
        },
        {
            "alerts": [],
            "metaData": {},
            "data": [
                [
                    "1",
                    "2007Q1",
                    "0.2977",
                    "0.1725",
                    "0.0555"
                ],
                [
                    "2",
                    "2007Q2",
                    "0.2075",
                    "0.1133",
                    "0.0256"
                ],
                [
                    "3",
                    "2007Q3",
                    "0.1596",
                    "0.0795",
                    "0.0039"
                ],
                [
                    "4",
                    "2007Q4",
                    "0.1369",
                    "0.0662",
                    "-0.001"
                ],
                [
                    "5",
                    "2008Q1",
                    "0.1172",
                    "0.0544",
                    "-0.006"
                ],
                [
                    "6",
                    "2008Q2",
                    "0.1304",
                    "0.0734",
                    "0.0178"
                ],
                [
                    "7",
                    "2008Q3",
                    "0.1036",
                    "0.0501",
                    "-0.0023"
                ],
                [
                    "8",
                    "2008Q4",
                    "0.0986",
                    "0.0483",
                    "-0.0012"
                ],
                [
                    "9",
                    "2009Q1",
                    "0.087",
                    "0.0399",
                    "-0.0068"
                ],
                [
                    "10",
                    "2009Q2",
                    "0.0747",
                    "0.0297",
                    "-0.015"
                ],
                [
                    "11",
                    "2009Q3",
                    "0.0563",
                    "0.0137",
                    "-0.0288"
                ],
                [
                    "12",
                    "2009Q4",
                    "0.0412",
                    "0.0",
                    "-0.0412"
                ]
            ],
            "columns": [
                {
                    "name": "RowId"
                },
                {
                    "name": "Period Name"
                },
                {
                    "name": "Upper Control Limit"
                },
                {
                    "name": "Proportional Difference"
                },
                {
                    "name": "Lower Control Limit"
                }
            ],
            "name": "ProportionalDifferenceGraphOutput",
            "outputType": "Chart"
        },
        {
            "metaData": {},
            "data": [
                [
                    "0",
                    "intercept",
                    "-3.3052",
                    "0.2463",
                    "13.4194",
                    "1",
                    "0.0"
                ],
                [
                    "1",
                    "lymphnodes2004",
                    "0.001",
                    "3.0E-4",
                    "-3.3333",
                    "1",
                    "0.0009"
                ],
                [
                    "2",
                    "metsatdiag2004",
                    "0.0181",
                    "0.0019",
                    "-9.5263",
                    "1",
                    "0.0"
                ],
                [
                    "3",
                    "medicaid",
                    "0.369",
                    "0.1011",
                    "-3.6499",
                    "1",
                    "0.0003"
                ],
                [
                    "4",
                    "gradeii",
                    "0.508",
                    "0.162",
                    "-3.1358",
                    "1",
                    "0.0017"
                ],
                [
                    "5",
                    "gradeiii",
                    "0.7426",
                    "0.1741",
                    "-4.2654",
                    "1",
                    "0"
                ],
                [
                    "6",
                    "uninsured",
                    "0.3484",
                    "0.1544",
                    "-2.2565",
                    "1",
                    "0.024"
                ],
                [
                    "7",
                    "asian",
                    "-0.1582",
                    "0.1611",
                    "0.982",
                    "1",
                    "0.3261"
                ],
                [
                    "8",
                    "male",
                    "0.1603",
                    "0.0716",
                    "-2.2388",
                    "1",
                    "0.0252"
                ],
                [
                    "9",
                    "tumorsize2004",
                    "0.0037",
                    "6.0E-4",
                    "-6.1667",
                    "1",
                    "0"
                ],
                [
                    "10",
                    "gradeiv",
                    "0.5934",
                    "0.2837",
                    "-2.0916",
                    "1",
                    "0.0365"
                ],
                [
                    "11",
                    "unkinsure",
                    "-0.6356",
                    "0.2724",
                    "2.3333",
                    "1",
                    "0.0196"
                ],
                [
                    "12",
                    "hispanic",
                    "-0.0926",
                    "0.1493",
                    "0.6202",
                    "1",
                    "0.5351"
                ],
                [
                    "13",
                    "nativeamer",
                    "0.4118",
                    "0.3444",
                    "-1.1957",
                    "1",
                    "0.2318"
                ],
                [
                    "14",
                    "nhw",
                    "0.1144",
                    "0.1089",
                    "-1.0505",
                    "1",
                    "0.2935"
                ],
                [
                    "15",
                    "agediag_yrs",
                    "-0.0274",
                    "0.0025",
                    "10.96",
                    "1",
                    "0.0"
                ]
            ],
            "columns": [
                {
                    "name": "RowId"
                },
                {
                    "name": "name"
                },
                {
                    "name": "value"
                },
                {
                    "name": "stdError"
                },
                {
                    "name": "testStat"
                },
                {
                    "name": "dof"
                },
                {
                    "name": "pValue"
                }
            ],
            "name": "LogisticRegressionFormulaOutput",
            "outputType": "Tabular"
        }
    ]
}