{
    "statConfig": {
        "version": "33",
        "createdTS": "2013-10-28 15:44:25.328",
        "createdBy": 1,
        "updatedTS": "2016-02-13 11:45:25.328",
        "updatedBy": 2,   
        "comments": [
            {
                "16": "Added AVS to LR1 and SPRT"
            },
            {
                "17": "Replaced logisticRegressionFormula with logisticRegression"
            },
            {
                "18": "Updated comments section to JSON array; moved to end of JSON; added rolling window definition"
            },
            {
                "19": "Renamed RollingWindow method to LRCombined and added IndependentVariable section to it"
            },
            {
                "20": "Added shortName to all methods to facilitate better display in UI"
            },
            {
                "21": "Replaced rollingWindowTestingWindow with rollingWindowScoringWindow paramaters in LRCombined method"
            },
            {
                "22": "Added rollingWindowTimeUnit and rollingWindowUnitQuantity to riskAdjustedSPRT"
            },
            {
                "23": "Added Survival Analysis"
            },
            {
                "24": "Removed implied parameters for Survival Analysis method and replaced them with deafults"
            },
            {
                "25": "Added Confidence Intervals to Propensity methods, removed AVS from Survival"
            },
            {
                "26": "Added Exposure Variable to LR2Step (second step) and LRCombined"
            },
            {
                "27": "Removed propensityScoreAnalysisLRModel"
            },
            {
                "28": "Replaced CI1 and CI2 with alphaError and alphaSpending flag"
            },
            {
                "29": "Placeholder for changes made at VA"
            },
            {
                "30": "Added manualLogisticRegression method and moved comments to the top of file by MM@Lahey"
            },
            {
                "31": "Added manualPropensityAnalysis, propensityAnalysisCreate, logisticRegressionCreate methods, added description and enabled flags to methods by MM@Lahey 2017-01-07"
            },
            {
                "32": "Remove USERSET and RAREST from Match Order in PA by MM@Lahey 2017-01-18"
            },
            {
                "33": "Changed attribute class to fieldClass by MM@Lahey 2017-02-13"
            }
        ],        
        "methods": [
            {
                "name": "logisticRegressionCreate",
                "shortName": "LR Create",
                "description": "NOT YET FULLY IMPLEMENTED",
                "enabled": false,                
                "steps": [
                    {
                        "name": "logisticRegression", 
                        "active": true,
                        "inputs": {
                            "studyUniqueId": {
                                "type": "String",
                                "fieldClass": "Case ID",
                                "inputText": "Unique ID",
                                "description": "Select the unique id for the study",
                                "required": false,
                                "values": [
                                    "value0"
                                ],
                                "validationRegEx": "<optional validation for permissible values for client-level validation>"
                            },
                            "independentVariableSelection": {
                                "type": "ArrayList<String>",
                                "fieldClass": "Risk Adjustment",
                                "inputText": "Independent Variables",
                                "description": "Select all the independent variables for the study from the list",
                                "required": true,
                                "values": [
                                    "value0"
                                ]
                            },                         
                            "dependentVariableSelection": {
                                "type": "string",
                                "fieldClass": "Outcome",
                                "inputText": "Dependent Variable",
                                "description": "Select the dependent variable for the study from the list",
                                "required": true,
                                "values": [
                                    "value0"
                                ]
                            },
                            "automaticVariableSelection": {
                                "type": "boolean",
                                "fieldClass": "Parameter",
                                "inputText": "Use Automatic Variable Selection",
                                "description": "Set to on to use Automatic Variable Selection",
                                "required": true,
                                "values": [
                                    false
                                ]
                            }
                        }
                    }
                ]
            },                     
            {
                "name": "logisticRegression",
                "shortName": "LR 2 Step",
                "description": "Two step Logistic Regression",
                "enabled": true,                
                "steps": [
                    {
                        "name": "logisticRegression", 
                        "active": true,
                        "inputs": {
                            "studyUniqueId": {
                                "type": "String",
                                "fieldClass": "Case ID",
                                "inputText": "Unique ID",
                                "description": "Select the unique id for the study",
                                "required": false,
                                "values": [
                                    "value0"
                                ],
                                "validationRegEx": "<optional validation for permissible values for client-level validation>"
                            },
                            "independentVariableSelection": {
                                "type": "ArrayList<String>",
                                "fieldClass": "Risk Adjustment",
                                "inputText": "Independent Variables",
                                "description": "Select all the independent variables for the study from the list",
                                "required": true,
                                "values": [
                                    "value0"
                                ]
                            },                         
                            "dependentVariableSelection": {
                                "type": "string",
                                "fieldClass": "Outcome",
                                "inputText": "Dependent Variable",
                                "description": "Select the dependent variable for the study from the list",
                                "required": true,
                                "values": [
                                    "value0"
                                ]
                            },
                            "automaticVariableSelection": {
                                "type": "boolean",
                                "fieldClass": "Parameter",
                                "inputText": "Use Automatic Variable Selection",
                                "description": "Set to on to use Automatic Variable Selection",
                                "required": true,
                                "values": [
                                    false
                                ]
                            }
                        }
                    },
                    {
                        "name": "logisticRegressionAnalysis",
                        "active": true,
                        "inputs": {
                            "model": {
                                "type": "ArrayList<String>",
                                "fieldClass": "lrValue",
                                "inputText": "Model values",
                                "description": "Select all the model values for the study from the list",
                                "required": true,
                                "values": [
                                    {
                                        "name": "value0",
                                        "estimate": "0.0"
                                    }
                                ]
                            },
                            "studyUniqueId": {
                                "type": "String",
                                "fieldClass": "Case ID",
                                "inputText": "Unique ID",
                                "description": "Select the unique id for the study",
                                "required": false,
                                "values": [
                                    "value0"
                                ]
                            },
                            "dependentVariableSelection": {
                                "type": "string",
                                "fieldClass": "Outcome",
                                "inputText": "Dependent Variable",
                                "description": "Select the dependent variable for the study from the list",
                                "required": true,
                                "values": [
                                    "value0"
                                ]
                            },
                            "exposureVariableSelection": {
                                "type": "string",
                                "inputText": "ExposureVariable",
                                "description": "Select the exposure variable for the study from the list",
                                "required": true,
                                "values": [
                                    "value0"
                                ]
                            },                            
                            "studyStartDate": {
                                "validationRegEx": "<optional validation for permissible values for client-level validation>",
                                "values": [
                                    "Y-m-d H:i:s.u"
                                ],
                                "inputText": "Study Start Date",
                                "description": "Start Date for the study",
                                "required": true,
                                "type": "String"
                            },
                            "studyEndDate": {
                                "validationRegEx": "<optional validation for permissible values for client-level validation>",
                                "values": [
                                    "Y-m-d H:i:s.u"
                                ],
                                "inputText": "Study End Date",
                                "description": "End Date for the study",
                                "required": true,
                                "type": "String"
                            },
                            "sequencingVariableSelection": {
                                "type": "string",
                                "inputText": "SequencingVariable",
                                "fieldClass": "Sequencer",
                                "description": "Select the sequencing variable for the study from the list",
                                "required": false,
                                "values": [
                                    "value0"
                                ]
                            },
                            "alphaError": {
                                "type": "Double",
                                "inputText": "Alpha Error",
                                "description": "Alpha error for Primary Confidence Interval",
                                "required": true,
                                "values": [
                                    0
                                ]
                            },
                            "alphaSpending": {
                                "type": "boolean",
                                "fieldClass": "Parameter",
                                "inputText": "Alpha Spending",
                                "description": "Use Alpha Spending to calculate Secondary Confidence Interval",
                                "required": true,
                                "values": [
                                    true
                                ]
                            },
                            "reportingPeriod": { 
                                "type": "MultipleUnique",
                                "inputText": "Period type",
                                "description": "Select the period type for the study from the list",
                                "required": true,
                                "values": [
                                    "value0"
                                ],
                                "availableValues": [
                                    {
                                        "1": "SingleSplit"
                                    },
                                    {
                                        "2": "Half"
                                    },
                                    {
                                        "3": "Year"
                                    },
                                    {
                                        "4": "Month"
                                    },
                                    {
                                        "5": "Week"
                                    },
                                    {
                                        "6": "Quarter"
                                    },
                                    {
                                        "7": "MultiSplit"
                                    }
                                ]
                            }
                        }
                    }
                ]
            },
            {
                "name": "manualLogisticRegression",
                "shortName": "LR Apply",
                "description": "Logistic Regression Analysis with prepopulated model",
                "enabled": true,                
                "deltaModelId": 0,
                "steps": [
                    {
                        "name": "manualLogisticRegressionAnalysis",
                        "active": true,
                        "inputs": {
                            "model": {
                                "name": "",
                                "id": "",
                                "type": "ArrayList<String>",
                                "fieldClass": "lrValue",
                                "inputText": "Model values",
                                "description": "Select all the model values for the study from the list",
                                "required": true,
                                "values": [
                                    {
                                        "name": "value0",
                                        "estimate": "0.0"
                                    }
                                ]
                            },
                            "studyUniqueId": {
                                "type": "String",
                                "fieldClass": "Case ID",
                                "inputText": "Unique ID",
                                "description": "Select the unique id for the study",
                                "required": false,
                                "values": [
                                    "value0"
                                ]
                            },
                            "dependentVariableSelection": {
                                "type": "string",
                                "fieldClass": "Outcome",
                                "inputText": "Dependent Variable",
                                "description": "Select the dependent variable for the study from the list",
                                "required": true,
                                "values": [
                                    "value0"
                                ]
                            },                            
                            "exposureVariableSelection": {
                                "type": "string",
                                "inputText": "ExposureVariable",
                                "description": "Select the exposure variable for the study from the list",
                                "required": true,
                                "values": [
                                    "value0"
                                ]
                            },
                            "studyStartDate": {
                                "validationRegEx": "<optional validation for permissible values for client-level validation>",
                                "values": [
                                    "Y-m-d H:i:s.u"
                                ],
                                "inputText": "Study Start Date",
                                "description": "Start Date for the study",
                                "required": true,
                                "type": "String"
                            },
                            "studyEndDate": {
                                "validationRegEx": "<optional validation for permissible values for client-level validation>",
                                "values": [
                                    "Y-m-d H:i:s.u"
                                ],
                                "inputText": "Study End Date",
                                "description": "End Date for the study",
                                "required": true,
                                "type": "String"
                            },
                            "sequencingVariableSelection": {
                                "type": "string",
                                "inputText": "SequencingVariable",
                                "fieldClass": "Sequencer",
                                "description": "Select the sequencing variable for the study from the list",
                                "required": false,
                                "values": [
                                    "value0"
                                ]
                            },
                            "alphaError": {
                                "type": "Double",
                                "inputText": "Alpha Error",
                                "description": "Alpha error for Primary Confidence Interval",
                                "required": true,
                                "values": [
                                    0
                                ]
                            },
                            "alphaSpending": {
                                "type": "boolean",
                                "fieldClass": "Parameter",
                                "inputText": "Alpha Spending",
                                "description": "Use Alpha Spending to calculate Secondary Confidence Interval",
                                "required": true,
                                "values": [
                                    true
                                ]
                            },
                            "reportingPeriod": {
                                "type": "MultipleUnique",
                                "inputText": "Period type",
                                "description": "Select the period type for the study from the list",
                                "required": true,
                                "values": [
                                    "value0"
                                ],
                                "availableValues": [
                                    {
                                        "1": "SingleSplit"
                                    },
                                    {
                                        "2": "Half"
                                    },
                                    {
                                        "3": "Year"
                                    },
                                    {
                                        "4": "Month"
                                    },
                                    {
                                        "5": "Week"
                                    },
                                    {
                                        "6": "Quarter"
                                    },
                                    {
                                        "7": "MultiSplit"
                                    }
                                ]
                            }
                        }
                    }
                ]
            },           
            {
                "name": "logisticRegressionCombined",
                "shortName": "LR Combined",
                "description": "NOT YET FULLY IMPLEMENTED",
                "enabled": false,             
                "steps": [
                    {
                        "name": "logisticRegressionCombinedAnalysis",
                        "active": true,
                        "inputs": {                           
                            "studyUniqueId": {
                                "type": "String",
                                "fieldClass": "Case ID",
                                "inputText": "Unique ID",
                                "description": "Select the unique id for the study",
                                "required": false,
                                "values": [
                                    "value0"
                                ]
                            },
                            "dependentVariableSelection": {
                                "type": "string",
                                "fieldClass": "Outcome",
                                "inputText": "Dependent Variable",
                                "description": "Select the dependent variable for the study from the list",
                                "required": true,
                                "values": [
                                    "value0"
                                ]
                            },
                            "independentVariableSelection": {
                                "type": "ArrayList<String>",
                                "fieldClass": "Risk Adjustment",
                                "inputText": "Independent Variables",
                                "description": "Select all the independent variables for the study from the list",
                                "required": true,
                                "values": [
                                    "value0"
                                ]
                            },          
                            "exposureVariableSelection": {
                                "type": "string",
                                "inputText": "ExposureVariable",
                                "description": "Select the exposure variable for the study from the list",
                                "required": true,
                                "values": [
                                    "value0"
                                ]
                            },                            
                            "studyStartDate": {
                                "validationRegEx": "<optional validation for permissible values for client-level validation>",
                                "values": [
                                    "Y-m-d H:i:s.u"
                                ],
                                "inputText": "Study Start Date",
                                "description": "Start Date for the study",
                                "required": true,
                                "type": "String"
                            },
                            "studyEndDate": {
                                "validationRegEx": "<optional validation for permissible values for client-level validation>",
                                "values": [
                                    "Y-m-d H:i:s.u"
                                ],
                                "inputText": "Study End Date",
                                "description": "End Date for the study",
                                "required": true,
                                "type": "String"
                            },
                            "sequencingVariableSelection": {
                                "type": "string",
                                "inputText": "SequencingVariable",
                                "fieldClass": "Sequencer",
                                "description": "Select the sequencing variable for the study from the list",
                                "required": false,
                                "values": [
                                    "value0"
                                ]
                            },
                            "alphaError": {
                                "type": "Double",
                                "inputText": "Alpha Error",
                                "description": "Alpha error for Primary Confidence Interval",
                                "required": true,
                                "values": [
                                    0
                                ]
                            },
                            "alphaSpending": {
                                "type": "boolean",
                                "fieldClass": "Parameter",
                                "inputText": "Alpha Spending",
                                "description": "Use Alpha Spending to calculate Secondary Confidence Interval",
                                "required": true,
                                "values": [
                                    true
                                ]
                            },                            
                            "reportingPeriod": { 
                                "type": "MultipleUnique",
                                "inputText": "Period type",
                                "description": "Select the period type for the study from the list",
                                "required": true,
                                "values": [
                                    "value0"
                                ],
                                "availableValues": [
                                    {
                                        "1": "SingleSplit"
                                    },
                                    {
                                        "2": "Half"
                                    },
                                    {
                                        "3": "Year"
                                    },
                                    {
                                        "4": "Month"
                                    },
                                    {
                                        "5": "Week"
                                    },
                                    {
                                        "6": "Quarter"
                                    },
                                    {
                                        "7": "MultiSplit"
                                    }
                                ]
                            },
                            "automaticVariableSelection": {
                                "type": "boolean",
                                "fieldClass": "Parameter",
                                "inputText": "Use Automatic Variable Selection",
                                "description": "Set to on to use Automatic Variable Selection",
                                "required": true,
                                "values": [
                                    false
                                ]
                            },                            
                            "rollingWindowUse": {
                                "type": "boolean",
                                "fieldClass": "Parameter",
                                "inputText": "Use Rolling Window",
                                "description": "Set to use rolling window for scoring the model",
                                "required": true,
                                "values": [
                                    false
                                ]
                            },
                            "rollingWindowEndDate": {
                                "validationRegEx": "<optional validation for permissible values for client-level validation>",
                                "values": [
                                    "Y-m-d H:i:s.u"
                                ],
                                "inputText": "Rolling Window End Date",
                                "description": "Enter End Date for the rolling window",
                                "required": true,
                                "type": "String"
                            },
                            "rollingWindowDumpWindowTimeUnit": {
                                "type": "MultipleUnique",
                                "inputText": "Scoring Window period",
                                "description": "This is the window to carve off each time a rolling scoring is done.",
                                "required": true,
                                "values": [
                                    "Month"
                                ],
                                "availableValues": [
                                    {
                                        "1": "Year"
                                    },
                                    {
                                        "2": "Month"
                                    },
                                    {
                                        "3": "Week"
                                    },
                                    {
                                        "4": "Quarter"
                                    },
                                    {
                                        "5": "Day"
                                    }
                                ]
                            },
                            "rollingWindowDumpNumberUnits": {
                                "type": "Integer",
                                "inputText": "Scoring Window units",
                                "description": "Enter the number of number of windows to dump each rolling window cycle.",
                                "required": true,
                                "values": [
                                    1
                                ]
                            },
                            "rollingWindowScoringWindow": {
                                "type": "MultipleUnique",
                                "inputText": "Scoring Window period",
                                "description": "This is the window against which scoring is performed in a rolling window.",
                                "required": true,
                                "values": [
                                    "Month"
                                ],
                                "availableValues": [
                                    {
                                        "1": "Year"
                                    },
                                    {
                                        "2": "Month"
                                    },
                                    {
                                        "3": "Week"
                                    },
                                    {
                                        "4": "Quarter"
                                    },
                                    {
                                        "5": "Day"
                                    }
                                ]
                            },
                            "rollingWindowScoringWindowUnits": {
                                "type": "Integer",
                                "inputText": "Scoring Window units",
                                "description": "Enter the number of windows in the scoring cycle.",
                                "required": true,
                                "values": [
                                    1
                                ]
                            }                            
                        }
                    }                    
                ]
            },  
            {
                "name": "propensityScoreAnalysis",
                "shortName": "Propensity",
                "description": "Propensity Score Analysis",
                "enabled": true,                
                "steps": [
                    {
                        "name": "propensityScoreAnalysis",
                        "active": true,
                        "inputs": {
                            "studyUniqueId": {
                                "type": "String",
                                "inputText": "UniqueID",
                                "description": "Select the unique id for the study",
                                "required": false,
                                "values": [
                                    "value0"
                                ]
                            },
                            "independentVariableSelection": {
                                "type": "ArrayList<String>",
                                "inputText": "IndependentVariables",
                                "description": "Select all the independent variables for the study from the list",
                                "required": true,
                                "values": [
                                    "value0"
                                ]
                            },
                            "dependentVariableSelection": {
                                "type": "string",
                                "inputText": "DependentVariable",
                                "description": "Select the dependent variable for the study from the list",
                                "required": true,
                                "values": [
                                    "value0"
                                ]
                            },
                            "exposureVariableSelection": {
                                "type": "string",
                                "inputText": "ExposureVariable",
                                "description": "Select the exposure variable for the study from the list",
                                "required": true,
                                "values": [
                                    "value0"
                                ]
                            },
                            "sequencingVariableSelection": {
                                "type": "string",
                                "inputText": "SequencingVariable",
                                "description": "Select the sequencing variable for the study from the list",
                                "required": true,
                                "values": [
                                    "value0"
                                ]
                            },
                            "dataSplitOption": {
                                "type": "MultipleUnique",
                                "inputText": "SplitOption",
                                "description": "Select the split option for the study from the list",
                                "required": true,
                                "values": [
                                    "value0"
                                ],
                                "availableValues": [
                                    {
                                        "1": "SingleSplit"
                                    },
                                    {
                                        "2": "Half"
                                    },
                                    {
                                        "3": "Year"
                                    },
                                    {
                                        "4": "Month"
                                    },
                                    {
                                        "5": "Week"
                                    },
                                    {
                                        "6": "Quarter"
                                    },
                                    {
                                        "7": "MultiSplit"
                                    }
                                ]
                            },
                            "calipers": {
                                "type": "Double",
                                "inputText": "Calipers",
                                "description": "Enter the calipers used to adjust matching value.",
                                "required": true,
                                "values": [
                                    0
                                ]
                            },
                            "caliperType": {
                                "type": "MultipleUnique",
                                "inputText": "CaliperType",
                                "description": "Select the type of caliper from the available values",
                                "required": true,
                                "values": [
                                    "value0"
                                ],
                                "availableValues": [
                                    {
                                        "1": "EXPOSUREPROBABILITY"
                                    },
                                    {
                                        "2": "LOGITSD"
                                    }
                                ]
                            },
                            "matchNumber": {
                                "type": "Double",
                                "inputText": "NumberofMatches",
                                "description": "Number of matches between exposed and unexposed",
                                "required": true,
                                "values": [
                                    0
                                ]
                            },
                            "matchType": {
                                "type": "MultipleUnique",
                                "inputText": "Match Type",
                                "description": "Type of the match between exposed and unexposed",
                                "required": true,
                                "values": [
                                    "value0"
                                ],
                                "availableValues": [
                                    {
                                        "1": "CLOSEST"
                                    },
                                    {
                                        "2": "RANDOM"
                                    }
                                ]
                            },
                            "matchOrder": {
                                "type": "MultipleUnique",
                                "inputText": "Match Order",
                                "description": "Type of the match between exposed and unexposed",
                                "required": true,
                                "values": [
                                    "value0"
                                ],
                                "availableValues": [
                                    {
                                        "1": "RANDOMORDER"
                                    }
                                ]
                            },
                            "alphaError": {
                                "type": "Double",
                                "inputText": "Alpha Error",
                                "description": "Alpha error for Primary Confidence Interval",
                                "required": true,
                                "values": [
                                    0
                                ]
                            },
                            "alphaSpending": {
                                "type": "boolean",
                                "fieldClass": "Parameter",
                                "inputText": "Alpha Spending",
                                "description": "Use Alpha Spending to calculate Secondary Confidence Interval",
                                "required": true,
                                "values": [
                                    true
                                ]
                            },                            
                            "reportingPeriod": {
                                "type": "MultipleUnique",
                                "inputText": "Period type",
                                "description": "Select the period type for the study from the list",
                                "required": true,
                                "values": [
                                    "value0"
                                ],
                                "availableValues": [
                                    {
                                        "1": "SingleSplit"
                                    },
                                    {
                                        "2": "Half"
                                    },
                                    {
                                        "3": "Year"
                                    },
                                    {
                                        "4": "Month"
                                    },
                                    {
                                        "5": "Week"
                                    },
                                    {
                                        "6": "Quarter"
                                    },
                                    {
                                        "7": "MultiSplit"
                                    }
                                ]
                            },                           
                            "rollingWindowUse": {
                                "type": "boolean",
                                "fieldClass": "Parameter",
                                "inputText": "Use Rolling Window",
                                "description": "Set to use rolling window for scoring the model",
                                "required": true,
                                "values": [
                                    false
                                ]
                            }
                        }
                    }
                ]
            },
            {
                "name": "propensityAnalysisCreate",
                "shortName": "PA Create",
                "description": "NOT YET FULLY IMPLEMENTED",
                "enabled": false,                
                "steps": [
                    {
                        "name": "propensityAnaysisCreate", 
                        "active": true,
                        "inputs": {
                            "studyUniqueId": {
                                "type": "String",
                                "fieldClass": "Case ID",
                                "inputText": "Unique ID",
                                "description": "Select the unique id for the study",
                                "required": false,
                                "values": [
                                    "value0"
                                ],
                                "validationRegEx": "<optional validation for permissible values for client-level validation>"
                            },
                            "independentVariableSelection": {
                                "type": "ArrayList<String>",
                                "fieldClass": "Risk Adjustment",
                                "inputText": "Independent Variables",
                                "description": "Select all the independent variables for the study from the list",
                                "required": true,
                                "values": [
                                    "value0"
                                ]
                            },                         
                            "dependentVariableSelection": {
                                "type": "string",
                                "fieldClass": "Outcome",
                                "inputText": "Dependent Variable",
                                "description": "Select the dependent variable for the study from the list",
                                "required": true,
                                "values": [
                                    "value0"
                                ]
                            },
                            "automaticVariableSelection": {
                                "type": "boolean",
                                "fieldClass": "Parameter",
                                "inputText": "Use Automatic Variable Selection",
                                "description": "Set to on to use Automatic Variable Selection",
                                "required": true,
                                "values": [
                                    false
                                ]
                            }
                        }
                    }
                ]
            },                 
            {
                "name": "manualPropensityAnalysis",
                "shortName": "PA Apply",
                "description": "NOT YET FULLY IMPLEMENTED",
                "enabled": false,
                "steps": [
                    {
                        "name": "manualPropensityAnalysis",
                        "active": true,
                        "inputs": {
                            "studyUniqueId": {
                                "type": "String",
                                "inputText": "UniqueID",
                                "description": "Select the unique id for the study",
                                "required": false,
                                "values": [
                                    "value0"
                                ]
                            },
                            "model": {
                                "name": "",
                                "id": "",
                                "type": "ArrayList<String>",
                                "fieldClass": "lrValue",
                                "inputText": "Model values",
                                "description": "Select all the model values for the study from the list",
                                "required": true,
                                "values": [
                                    {
                                        "name": "value0",
                                        "estimate": "0.0"
                                    }
                                ]
                            },
                            "dependentVariableSelection": {
                                "type": "string",
                                "inputText": "DependentVariable",
                                "description": "Select the dependent variable for the study from the list",
                                "required": true,
                                "values": [
                                    "value0"
                                ]
                            },
                            "exposureVariableSelection": {
                                "type": "string",
                                "inputText": "ExposureVariable",
                                "description": "Select the exposure variable for the study from the list",
                                "required": true,
                                "values": [
                                    "value0"
                                ]
                            },
                            "sequencingVariableSelection": {
                                "type": "string",
                                "inputText": "SequencingVariable",
                                "description": "Select the sequencing variable for the study from the list",
                                "required": true,
                                "values": [
                                    "value0"
                                ]
                            },
                            "dataSplitOption": {
                                "type": "MultipleUnique",
                                "inputText": "SplitOption",
                                "description": "Select the split option for the study from the list",
                                "required": true,
                                "values": [
                                    "value0"
                                ],
                                "availableValues": [
                                    {
                                        "1": "SingleSplit"
                                    },
                                    {
                                        "2": "Half"
                                    },
                                    {
                                        "3": "Year"
                                    },
                                    {
                                        "4": "Month"
                                    },
                                    {
                                        "5": "Week"
                                    },
                                    {
                                        "6": "Quarter"
                                    },
                                    {
                                        "7": "MultiSplit"
                                    }
                                ]
                            },
                            "calipers": {
                                "type": "Double",
                                "inputText": "Calipers",
                                "description": "Enter the calipers used to adjust matching value.",
                                "required": true,
                                "values": [
                                    0
                                ]
                            },
                            "caliperType": {
                                "type": "MultipleUnique",
                                "inputText": "CaliperType",
                                "description": "Select the type of caliper from the available values",
                                "required": true,
                                "values": [
                                    "value0"
                                ],
                                "availableValues": [
                                    {
                                        "1": "EXPOSUREPROBABILITY"
                                    },
                                    {
                                        "2": "LOGITSD"
                                    }
                                ]
                            },
                            "matchNumber": {
                                "type": "Double",
                                "inputText": "NumberofMatches",
                                "description": "Number of matches between exposed and unexposed",
                                "required": true,
                                "values": [
                                    0
                                ]
                            },
                            "matchType": {
                                "type": "MultipleUnique",
                                "inputText": "Match Type",
                                "description": "Type of the match between exposed and unexposed",
                                "required": true,
                                "values": [
                                    "value0"
                                ],
                                "availableValues": [
                                    {
                                        "1": "CLOSEST"
                                    },
                                    {
                                        "2": "RANDOM"
                                    }
                                ]
                            },
                            "matchOrder": {
                                "type": "MultipleUnique",
                                "inputText": "Match Order",
                                "description": "Type of the match between exposed and unexposed",
                                "required": true,
                                "values": [
                                    "value0"
                                ],
                                "availableValues": [
                                    {
                                        "1": "RANDOMORDER"
                                    },
                                    {
                                        "2": "RAREST"
                                    }
                                ]
                            },
                            "alphaError": {
                                "type": "Double",
                                "inputText": "Alpha Error",
                                "description": "Alpha error for Primary Confidence Interval",
                                "required": true,
                                "values": [
                                    0
                                ]
                            },
                            "alphaSpending": {
                                "type": "boolean",
                                "fieldClass": "Parameter",
                                "inputText": "Alpha Spending",
                                "description": "Use Alpha Spending to calculate Secondary Confidence Interval",
                                "required": true,
                                "values": [
                                    true
                                ]
                            },                            
                            "reportingPeriod": {
                                "type": "MultipleUnique",
                                "inputText": "Period type",
                                "description": "Select the period type for the study from the list",
                                "required": true,
                                "values": [
                                    "value0"
                                ],
                                "availableValues": [
                                    {
                                        "1": "SingleSplit"
                                    },
                                    {
                                        "2": "Half"
                                    },
                                    {
                                        "3": "Year"
                                    },
                                    {
                                        "4": "Month"
                                    },
                                    {
                                        "5": "Week"
                                    },
                                    {
                                        "6": "Quarter"
                                    },
                                    {
                                        "7": "MultiSplit"
                                    }
                                ]
                            },                           
                            "rollingWindowUse": {
                                "type": "boolean",
                                "fieldClass": "Parameter",
                                "inputText": "Use Rolling Window",
                                "description": "Set to use rolling window for scoring the model",
                                "required": true,
                                "values": [
                                    false
                                ]
                            }
                        }
                    }
                ]
            },             
            {
                "name": "riskAdjustedSPRT",
                "shortName": "SPRT",
                "description": "NOT YET FULLY IMPLEMENTED",
                "enabled": false,           
                "steps": [
                    {
                        "name": "riskAdjustedSPRT",
                        "active": true,
                        "inputs": {
                            "oddsRatio": {
                                "type": "Double",
                                "inputText": "Odds Ratio",
                                "description": "Enter odds ratio for the study",
                                "required": true,
                                "values": [
                                    0
                                ]
                            },
                            "alphaError": {
                                "type": "Double",
                                "inputText": "Alpha Error",
                                "description": "Enter alpha error for the study",
                                "required": true,
                                "values": [
                                    0
                                ]
                            },
                            "betaError": {
                                "type": "Double",
                                "inputText": "Beta Error",
                                "description": "Enter beta error for the study",
                                "required": true,
                                "values": [
                                    0
                                ]
                            },
                            "studyUniqueId": {
                                "type": "String",
                                "inputText": "Unique ID",
                                "description": "Select the unique id for the study",
                                "required": true,
                                "values": [
                                    "value0"
                                ],
                                "validationRegEx": "<optional validation for permissible values for client-level validation>"
                            },
                            "independentVariableSelection": {
                                "type": "ArrayList<String>",
                                "inputText": "Independent Variables",
                                "description": "Select all the independent variables for the study from the list",
                                "required": true,
                                "values": [
                                    "value0"
                                ]
                            },
                            "dependentVariableSelection": {
                                "type": "string",
                                "inputText": "Dependent Variable",
                                "description": "Select the dependent variable for the study from the list",
                                "required": true,
                                "values": [
                                    "value0"
                                ]
                            },
                            "sequencingVariableSelection": {
                                "type": "string",
                                "inputText": "Sequencing Variable",
                                "description": "Select the sequencing variable for the study from the list",
                                "required": true,
                                "values": [
                                    "value0"
                                ]
                            },
                            "numberPeriods": {
                                "type": "Integer",
                                "inputText": "Number of Periods",
                                "description": "Number of periods returned in result set",
                                "required": true,
                                "values": [
                                    100
                                ]
                            },
                            "dataSplitOption": {
                                "type": "MultipleUnique",
                                "inputText": "Split Option",
                                "description": "Select the split option for the study from the list",
                                "required": true,
                                "values": [
                                    "value0"
                                ],
                                "availableValues": [
                                    {
                                        "1": "SingleSplit"
                                    },
                                    {
                                        "2": "Half"
                                    },
                                    {
                                        "3": "Year"
                                    },
                                    {
                                        "4": "Month"
                                    },
                                    {
                                        "5": "Week"
                                    },
                                    {
                                        "6": "Quarter"
                                    },
                                    {
                                        "7": "MultiSplit"
                                    }
                                ]
                            },
                            "automaticVariableSelection": {
                                "type": "boolean",
                                "fieldClass": "Parameter",
                                "inputText": "Use Automatic Variable Selection",
                                "description": "Set to on to use Automatic Variable Selection",
                                "required": true,
                                "values": [
                                    false
                                ]
                            },
                            "rollingWindowUse": {
                                "type": "boolean",
                                "fieldClass": "Parameter",
                                "inputText": "Use Rolling Window",
                                "description": "Set to use rolling window for scoring the model",
                                "required": true,
                                "values": [
                                    false
                                ]
                            },
                            "rollingWindowTimeUnit": {
                                "type": "MultipleUnique",
                                "inputText": "Training Window period",
                                "description": "This is the window against which scoring is performed in a rolling window.",
                                "required": true,
                                "values": [
                                    "Month"
                                ],
                                "availableValues": [
                                    {
                                        "1": "Year"
                                    },
                                    {
                                        "2": "Month"
                                    },
                                    {
                                        "3": "Week"
                                    },
                                    {
                                        "4": "Quarter"
                                    },
                                    {
                                        "5": "Day"
                                    }
                                ]
                            },
                            "rollingWindowUnitQuantity": {
                                "type": "Integer",
                                "inputText": "Training Window units",
                                "description": "Enter the number of windows in the training cycle.",
                                "required": true,
                                "values": [
                                    1
                                ]
                            }                            
                        }
                    }
                ]
            },           
            {
                "name": "survivalAnalysis",
                "shortName": "Survival",
                "description": "NOT YET FULLY IMPLEMENTED",
                "enabled": false,            
                "steps": [
                    {
                        "name": "survivalAnalysis",
                        "active": true,
                        "inputs": {            
                            "studyUniqueId": {
                                "type": "String",
                                "fieldClass": "Case ID",
                                "inputText": "Unique ID",
                                "description": "Select the unique id for the study",
                                "required": false,
                                "values": [
                                    "value0"
                                ],
                                "validationRegEx": "<optional validation for permissible values for client-level validation>"
                            },                            
                            "dependentVariableSelection": {
                                "type": "string",
                                "inputText": "Dependent Variable",
                                "description": "Select the dependent variable for the study from the list",
                                "required": true,
                                "values": [
                                    "value0"
                                ]
                            },
                            "exposureVariableSelection": {
                                "type": "string",
                                "inputText": "ExposureVariable",
                                "description": "Select the exposure variable for the study from the list",
                                "required": true,
                                "values": [
                                    "value0"
                                ]
                            },                          
                            "sequencingVariableSelection": {
                                "type": "string",
                                "inputText": "SequencingVariable",
                                "description": "Select the sequencing variable for the study from the list",
                                "required": false,
                                "values": [
                                    "value0"
                                ]
                            },
                            "start": {
                                "values": [],
                                "inputText": "Start value for time",
                                "description": "Start value for time",
                                "fieldClass": "Parameter",
                                "required": false,
                                "type": "String"
                            },
                            "stop": {
                                "values": [],
                                "inputText": "Stop value for time",
                                "description": "Stop value for time",
                                "fieldClass": "Parameter",
                                "required": true,
                                "type": "String"
                            }
                        }
                    }
                ]
            }
        ]
    },
    "status": {
        "message": "Configuration retrieved"
    },
    "success": true
}